…
rbind(
  neighborhod_indices_airport("EHAM", net2019, full, full_ms, hop = 1)%>%mutate(hop=1),
  neighborhod_indices_airport("EHAM", net2019, full, full_ms, hop = 2)%>%mutate(hop=2),
  neighborhod_indices_airport("EHAM", net2019, full, full_ms, hop = 3)%>%mutate(hop=3))
#> Joining with `by = join_by(week)`
#> `summarise()` has grouped output by 'week'. You can override using the
#> `.groups` argument.
#> Joining with `by = join_by(week)`
#> `summarise()` has grouped output by 'week'. You can override using the
#> `.groups` argument.
#> Joining with `by = join_by(week)`
#> `summarise()` has grouped output by 'week'. You can override using the
#> `.groups` argument.
#> # A tibble: 162 × 11
#>     week     v     e     w avg_weights perc_edges perc_vertices perc_weights
#>    <int> <int> <int> <int>       <dbl>      <dbl>         <dbl>        <dbl>
#>  1    26   364   649 10408       16.0      0.0172         0.185       0.0433
#>  2    27   361   648 10436       16.1      0.0175         0.185       0.0435
#>  3    28   374   660 10476       15.9      0.0178         0.190       0.0437
#>  4    29   360   645 10483       16.2      0.0176         0.184       0.044 
#>  5    30   342   617  9946       16.1      0.0169         0.177       0.0421
#>  6    31   344   624 10385       16.6      0.0174         0.176       0.044 
#>  7    26   128   171   290        1.7      0.0147         0.112       0.0162
#>  8    26    54    74   264        3.57     0.0381         0.129       0.0368
#>  9    26   152   281  2507        8.92     0.0218         0.274       0.0319
#> 10    26   157   299  4635       15.5      0.0351         0.230       0.0557
#> # ℹ 152 more rows
#> # ℹ 3 more variables: market_segment <chr>, name <chr>, hop <dbl>
```
…
